…
    ## 
    ## Attaching package: 'psych'

    ## The following objects are masked from 'package:ggplot2':
    ## 
    ##     %+%, alpha

``` r
# Import data
df <- read_xlsx("Dapur Putih Cafe.xlsx")
df
```

    ## # A tibble: 53 x 3
    ##    consider_buying price product_quality
    ##              <dbl> <dbl>           <dbl>
    ##  1              16    21              19
    ##  2              19    20              21
    ##  3              16    17              21
    ##  4              16    19              20
    ##  5              21    18              19
    ##  6              17    17              21
    ##  7              15    16              20
    ##  8              19    21              17
    ##  9              20    20              21
    ## 10              19    19              22
    ## # ... with 43 more rows
…
Next, we create a plot to visualize the clusters using the ggplot2
library. But first, we need to prepare the data by creating a data frame
with three columns that consists of consider_buying, price, and cluster.

``` r
# Add a column to store cluster
df <- df %>% select(-product_quality) %>% mutate(cluster = cluster_customer$cluster)
df
```

    ## # A tibble: 53 x 3
    ##    consider_buying price cluster
    ##              <dbl> <dbl>   <int>
    ##  1              16    21       1
    ##  2              19    20       1
    ##  3              16    17       2
    ##  4              16    19       1
    ##  5              21    18       1
    ##  6              17    17       2
    ##  7              15    16       2
    ##  8              19    21       1
    ##  9              20    20       1
    ## 10              19    19       1
    ## # ... with 43 more rows
…
